	{
	    "name": "First",
	    "text": "You can see some text here",
	    "date": "2020-07-16 14:13", //длина сгенерированного массива
	    "photo": "https://www.pngjoy.com/pngm/329/17358063_club-america-1977-transparent-png.png"
	}	
	{
		
	    "name": "Second",
	    "text": "You can see some text here",
	    "date": "2020-07-15 18:26", //длина сгенерированного массива
	    "photo": "https://www.pngjoy.com/pngm/329/17358063_club-america-1977-transparent-png.png"
	}
	
	